%YAML 1.1
%TAG !u! tag:unity3d.com,2011:
--- !u!65 &283214260145755984
BoxCollider:
  m_ObjectHideFlags: 0
  m_CorrespondingSourceObject: {fileID: 0}
  m_PrefabInstance: {fileID: 0}
  m_PrefabAsset: {fileID: 0}
  m_GameObject: {fileID: 2808613053196584327}
  m_Material: {fileID: 0}
  m_IsTrigger: 0
  m_Enabled: 1
  serializedVersion: 2
  m_Size: {x: 1.0003359, y: 0.96355927, z: 1}
  m_Center: {x: 0.00016796589, y: 0.48068208, z: -0.00000007450581}
--- !u!1001 &4638930289314532330
PrefabInstance:
  m_ObjectHideFlags: 0
  serializedVersion: 2
  m_Modification:
    m_TransformParent: {fileID: 0}
    m_Modifications:
    - target: {fileID: 7403396393933631501, guid: d7356911ef1037845a6dd9a715aa9bf9,
        type: 3}
      propertyPath: m_Name
      value: Coffer
      objectReference: {fileID: 0}
    - target: {fileID: 2032601531716402252, guid: d7356911ef1037845a6dd9a715aa9bf9,
        type: 3}
      propertyPath: m_LocalPosition.x
      value: 0
      objectReference: {fileID: 0}
    - target: {fileID: 2032601531716402252, guid: d7356911ef1037845a6dd9a715aa9bf9,
        type: 3}
      propertyPath: m_LocalPosition.y
      value: 0
      objectReference: {fileID: 0}
    - target: {fileID: 2032601531716402252, guid: d7356911ef1037845a6dd9a715aa9bf9,
        type: 3}
      propertyPath: m_LocalPosition.z
      value: 0
      objectReference: {fileID: 0}
    - target: {fileID: 2032601531716402252, guid: d7356911ef1037845a6dd9a715aa9bf9,
        type: 3}
      propertyPath: m_LocalRotation.x
      value: 0
      objectReference: {fileID: 0}
    - target: {fileID: 2032601531716402252, guid: d7356911ef1037845a6dd9a715aa9bf9,
        type: 3}
      propertyPath: m_LocalRotation.y
      value: 0
      objectReference: {fileID: 0}
    - target: {fileID: 2032601531716402252, guid: d7356911ef1037845a6dd9a715aa9bf9,
        type: 3}
      propertyPath: m_LocalRotation.z
      value: 0
      objectReference: {fileID: 0}
    - target: {fileID: 2032601531716402252, guid: d7356911ef1037845a6dd9a715aa9bf9,
        type: 3}
      propertyPath: m_LocalRotation.w
      value: 1
      objectReference: {fileID: 0}
    - target: {fileID: 2032601531716402252, guid: d7356911ef1037845a6dd9a715aa9bf9,
        type: 3}
      propertyPath: m_RootOrder
      value: 0
      objectReference: {fileID: 0}
    - target: {fileID: 2032601531716402252, guid: d7356911ef1037845a6dd9a715aa9bf9,
        type: 3}
      propertyPath: m_LocalEulerAnglesHint.x
      value: 0
      objectReference: {fileID: 0}
    - target: {fileID: 2032601531716402252, guid: d7356911ef1037845a6dd9a715aa9bf9,
        type: 3}
      propertyPath: m_LocalEulerAnglesHint.y
      value: 0
      objectReference: {fileID: 0}
    - target: {fileID: 2032601531716402252, guid: d7356911ef1037845a6dd9a715aa9bf9,
        type: 3}
      propertyPath: m_LocalEulerAnglesHint.z
      value: 0
      objectReference: {fileID: 0}
    - target: {fileID: 7158129638113262466, guid: d7356911ef1037845a6dd9a715aa9bf9,
        type: 3}
      propertyPath: Animation
      value: 
      objectReference: {fileID: 9091475350835993326}
    m_RemovedComponents: []
  m_SourcePrefab: {fileID: 100100000, guid: d7356911ef1037845a6dd9a715aa9bf9, type: 3}
--- !u!4 &6873409192045674380 stripped
Transform:
  m_CorrespondingSourceObject: {fileID: 2234783477120496742, guid: d7356911ef1037845a6dd9a715aa9bf9,
    type: 3}
  m_PrefabInstance: {fileID: 4638930289314532330}
  m_PrefabAsset: {fileID: 0}
--- !u!1001 &6186784419819396238
PrefabInstance:
  m_ObjectHideFlags: 0
  serializedVersion: 2
  m_Modification:
    m_TransformParent: {fileID: 6873409192045674380}
    m_Modifications:
    - target: {fileID: -927199367670048503, guid: 34bdc2471587b69488a97c4b8f03a761,
        type: 3}
      propertyPath: m_Name
      value: ChestShakeAndBake
      objectReference: {fileID: 0}
    - target: {fileID: -927199367670048503, guid: 34bdc2471587b69488a97c4b8f03a761,
        type: 3}
      propertyPath: m_StaticEditorFlags
      value: 8
      objectReference: {fileID: 0}
    - target: {fileID: -6057140222963153312, guid: 34bdc2471587b69488a97c4b8f03a761,
        type: 3}
      propertyPath: m_Controller
      value: 
      objectReference: {fileID: 9100000, guid: 4a8008933b66eae4598b8d29063385ac, type: 2}
    - target: {fileID: -4216859302048453862, guid: 34bdc2471587b69488a97c4b8f03a761,
        type: 3}
      propertyPath: m_LocalPosition.x
      value: -0
      objectReference: {fileID: 0}
    - target: {fileID: -4216859302048453862, guid: 34bdc2471587b69488a97c4b8f03a761,
        type: 3}
      propertyPath: m_LocalPosition.y
      value: -0.00027038573
      objectReference: {fileID: 0}
    - target: {fileID: -4216859302048453862, guid: 34bdc2471587b69488a97c4b8f03a761,
        type: 3}
      propertyPath: m_LocalPosition.z
      value: 0
      objectReference: {fileID: 0}
    - target: {fileID: -4216859302048453862, guid: 34bdc2471587b69488a97c4b8f03a761,
        type: 3}
      propertyPath: m_LocalRotation.x
      value: 0
      objectReference: {fileID: 0}
    - target: {fileID: -4216859302048453862, guid: 34bdc2471587b69488a97c4b8f03a761,
        type: 3}
      propertyPath: m_LocalRotation.y
      value: -0
      objectReference: {fileID: 0}
    - target: {fileID: -4216859302048453862, guid: 34bdc2471587b69488a97c4b8f03a761,
        type: 3}
      propertyPath: m_LocalRotation.z
      value: -0
      objectReference: {fileID: 0}
    - target: {fileID: -4216859302048453862, guid: 34bdc2471587b69488a97c4b8f03a761,
        type: 3}
      propertyPath: m_LocalRotation.w
      value: 1
      objectReference: {fileID: 0}
    - target: {fileID: -4216859302048453862, guid: 34bdc2471587b69488a97c4b8f03a761,
        type: 3}
      propertyPath: m_RootOrder
      value: 0
      objectReference: {fileID: 0}
    - target: {fileID: -4216859302048453862, guid: 34bdc2471587b69488a97c4b8f03a761,
        type: 3}
      propertyPath: m_LocalEulerAnglesHint.x
      value: 0
      objectReference: {fileID: 0}
    - target: {fileID: -4216859302048453862, guid: 34bdc2471587b69488a97c4b8f03a761,
        type: 3}
      propertyPath: m_LocalEulerAnglesHint.y
      value: 0
      objectReference: {fileID: 0}
    - target: {fileID: -4216859302048453862, guid: 34bdc2471587b69488a97c4b8f03a761,
        type: 3}
      propertyPath: m_LocalEulerAnglesHint.z
      value: 0
      objectReference: {fileID: 0}
    - target: {fileID: 6232755954081447508, guid: 34bdc2471587b69488a97c4b8f03a761,
        type: 3}
      propertyPath: m_StaticEditorFlags
      value: 8
      objectReference: {fileID: 0}
    m_RemovedComponents: []
  m_SourcePrefab: {fileID: 100100000, guid: 34bdc2471587b69488a97c4b8f03a761, type: 3}
--- !u!1 &2808613053196584327 stripped
GameObject:
  m_CorrespondingSourceObject: {fileID: -927199367670048503, guid: 34bdc2471587b69488a97c4b8f03a761,
    type: 3}
  m_PrefabInstance: {fileID: 6186784419819396238}
  m_PrefabAsset: {fileID: 0}
--- !u!95 &9091475350835993326 stripped
Animator:
  m_CorrespondingSourceObject: {fileID: -6057140222963153312, guid: 34bdc2471587b69488a97c4b8f03a761,
    type: 3}
  m_PrefabInstance: {fileID: 6186784419819396238}
  m_PrefabAsset: {fileID: 0}
